matrix processing
…
matrix_path = 'scirep_sequential_qc.txt'
classinfo_path = 'scirep_classes.txt'

mat_raw <- matrix_path %>% readr::read_tsv() %T>% print(n_extra = 0)

## Parsed with column specification:
## cols(
##   .default = col_integer(),
##   transcript = col_character()
## )

## See spec(...) for full column specifications.

## # A tibble: 89,619 x 192
##    transcript Sample_1S10 Sample_1S11 Sample_1S12 Sample_1S13 Sample_1S14
##    <chr>            <int>       <int>       <int>       <int>       <int>
##  1 ENST00000           0           0           0           0           0
##  2 ENST00000           0           0           0           0           0
##  3 ENST00000           0           0           0           0           0
##  4 ENST00000           0           0           0           0           0
##  5 ENST00000           0           0           0           0           0
##  6 ENST00000           0           0           0           0           0
##  7 ENST00000           0           1           0           1           1
##  8 ENST00000           0           0           0           0           0
##  9 ENST00000           0           1           0           0           0
## 10 ENST00000           0           0           0           0           0
## # ... with 89,609 more rows, and 186 more variables

info <- classinfo_path %>% readr::read_csv() %T>% print

## Parsed with column specification:
## cols(
##   sample_id = col_character(),
##   label = col_character()
## )

## # A tibble: 191 x 2
##    sample_id   label            
##    <chr>       <chr>            
##  1 Sample_1S3  Colorectal Cancer
##  2 Sample_1S6  Colorectal Cancer
##  3 Sample_1S9  Colorectal Cancer
##  4 Sample_1S12 Colorectal Cancer
##  5 Sample_1S15 Colorectal Cancer
##  6 Sample_1S18 Colorectal Cancer
##  7 Sample_1S21 Colorectal Cancer
##  8 Sample_1S24 Colorectal Cancer
##  9 Sample_4S2  Colorectal Cancer
## 10 Sample_4S5  Colorectal Cancer
## # ... with 181 more rows

thres_count = 2
thres_sample_nums = 5

mat <- mat_raw[rowSums(mat_raw > thres_count) > thres_sample_nums, ] %T>% print(n_extra = 0)

## # A tibble: 8,598 x 192
##    transcript Sample_1S10 Sample_1S11 Sample_1S12 Sample_1S13 Sample_1S14
##    <chr>            <int>       <int>       <int>       <int>       <int>
##  1 ENST00000           0           1           0           1           1
##  2 ENST00000           1           0           1           4           1
##  3 ENST00000           0           2           0           2           1
##  4 ENST00000           0           1           0           0           0
##  5 ENST00000           0           0           0           0           0
##  6 ENST00000           1           4           2           1           1
##  7 ENST00000           0           0           0           1           4
##  8 ENST00000           0           0           0           0           0
##  9 ENST00000           0           0           1           0           1
## 10 ENST00000           5           6          11           0           3
## # ... with 8,588 more rows, and 186 more variables
…
